<?xml version="1.0" encoding="UTF-8" standalone="no"?>
<svg
   height="50"
   width="50"
   viewBox="0 0 50 50.000001"
   version="1.1"
   id="svg2306"
   sodipodi:docname="icon.svg"
   inkscape:version="1.1.2 (0a00cf5339, 2022-02-04)"
   xmlns:inkscape="http://www.inkscape.org/namespaces/inkscape"
   xmlns:sodipodi="http://sodipodi.sourceforge.net/DTD/sodipodi-0.dtd"
   xmlns="http://www.w3.org/2000/svg"
   xmlns:svg="http://www.w3.org/2000/svg">
  <sodipodi:namedview
     id="namedview2308"
     pagecolor="#ffffff"
     bordercolor="#666666"
     borderopacity="1.0"
     inkscape:pageshadow="2"
     inkscape:pageopacity="0.0"
     inkscape:pagecheckerboard="0"
     showgrid="false"
     inkscape:zoom="1.0546875"
     inkscape:cx="360.77037"
     inkscape:cy="33.659259"
     inkscape:window-width="1920"
     inkscape:window-height="1020"
     inkscape:window-x="0"
     inkscape:window-y="0"
     inkscape:window-maximized="1"
     inkscape:current-layer="svg2306"
     width="321px" />
  <defs
     id="defs2182">
    <clipPath
       id="e">
      <path
         d="M 0,841.9 H 595.3 V 0 H 0 Z"
         id="path2167" />
    </clipPath>
    <clipPath
       id="d">
      <path
         d="M 0,896 H 896 V 0 H 0 Z"
         id="path2170" />
    </clipPath>
    <clipPath
       id="c">
      <path
         d="M 0,896 H 896 V 0 H 0 Z"
         id="path2173" />
    </clipPath>
    <clipPath
       id="b">
      <path
         d="M 0,31.88 H 31.88 V 0 H 0 Z"
         id="path2176" />
    </clipPath>
    <clipPath
       id="a">
      <path
         d="M 0,31.88 H 31.88 V 0 H 0 Z"
         id="path2179" />
    </clipPath>
  </defs>
  <g
     id="g2246"
     transform="translate(-195.95482,6.5412112)">
    <g
       stroke="#00b798"
       id="g2242">
      <path
         stroke-linejoin="round"
         d="M 206.13,14.43 V 33.45"
         stroke-linecap="round"
         stroke-width="2"
         fill="none"
         id="path2234" />
      <text
         font-family="sans-serif"
         font-size="12.5px"
         y="42.966"
         x="243.828"
         stroke-width="0.5"
         fill="#00b798"
         word-spacing="0"
         letter-spacing="0"
         transform="translate(-39.87,-31.9)"
         id="text2238"><tspan
           font-family="'Open Sans'"
           font-weight="bold"
           font-size="7.5px"
           y="42.966"
           x="243.828"
           id="tspan2236">Z</tspan></text>
      <path
         stroke-linejoin="round"
         d="M 235.13,33.46 H 206.17"
         stroke-linecap="round"
         stroke-width="2"
         fill="none"
         id="path2240" />
    </g>
    <path
       d="m 209.13,30.46 v -7 l 6,-5 5.97,5 5.03,-9 5.996,11 v 5 z"
       fill-rule="evenodd"
       fill="#00b798"
       id="path2244" />
  </g>
</svg>
